{
	"ResultPattern": {
	    // "Default" используется для не заданых явно типов, если отсутсвует, выводятся штатные результаты
		"Default": {
			"template": [
				"<textformat leading='1'><p align='center'><font face='Impact' color='{{c:BattleResult}}' size='16'>{{BattleMapName}}</font></p>",
				"<font color='#5A91D2' size='13' face='Impact'>{{BattleTankName}} {{up:BattleMarksOnGunIcon}} {{um:ranks_png}}{{up:BattleVehRank}}{{um:vspace_7r}}{{up:BattleChevronIcon}}{{um:ranks_png}}/chevron/{{BattleRankChange}}{{BattleChevronIcon}}{{um:vspace_3r}}</font>\n",
				"<textformat tabstops='50'><font color='{{um:color_text}}' size='14'><b>",
				"EFF:   <font color='{{c:BattleEFF}}'>{{BattleEFF}}</font>\n",
				"WN8: <font color='{{c:BattleWN8}}'>{{BattleWN8}}</font>\n",			
				"txt:bDamageDealt <font color='{{c:BattleDamageDealt}}'>{{BattleDamageDealt}}</font></b>\n",
				"<textformat>",		
				// Урон заблокированный броней
				"{{up:BattleBlockedByArmor}}",
				// Полный урон нанесенный с вашей помощью
				"{{up:BattleAssistedFull}}",
				// Урон по вашим развед-данным
				"{{up:BattleAssistedRadio}}",	
				"<p align='left'>txt:BattleCredits <font color='{{c:BattleCredits}}'>{{BattleCredits}}</font>\n",
				"txt:bCreditDebit <font color='{{c:BattleCreditDebit}}'>{{BattleCreditDebit}}</font>\n",
				// Чистый доход в бонах	
				"{{up:BattleBonnDebit}}",	
				"txt:CUXP   <font color='{{c:BattleXP}}'>{{BattleXP}} {{BattleDailyXPFactor}}</font> ( <font color='{{c:BattleOriginalXP}}'>{{BattleOriginalXP}}</font> )\n",
				"txt:bTmenXP <font color='{{c:BattleTmenXP}}'>{{BattleTmenXP}} {{BattleDailyXPFactor}}</font>\n",
				// Кол-во дополнительного опыта за игру во взводе
				"{{up:BattleSquadXP}}",
				// Нанесено оглушений
				"{{up:BattleStunNum}}",
				// Количество оглушенной техники
				"{{up:BattleStunned}}",			
				// Суммарное время оглушения 
				"{{up:BattleStunDuration}}",
				// Штрафы и компенсации
				"{{up:BattlePenalty}}",
				"{{up:BattleContribution}}",
				"{{up:BattleContributionIn}}",		
				// Достижения в бою
				"{{BattleAchievements}}</p>",
				"<p align='center'>{{um:ButtonResult}}</p>"
			],
			"icon": "", 
			// Иконки с конфига
			"bgIcon": "{{um:png}}/vehicle/{{BattleTankIcon}}"
			// Иконки с папки PMOD
			// "bgIcon": "{{um:A_png}}/vehicle/{{BattleTankIcon}}"
		},	
		// настройки результатов боя для ЛФ	
		"27": {
			"template": [
				"<textformat leading='1'><p align='center'><font face='Impact' color='{{c:BattleResult}}' size='16'>{{BattleMapName}}</font></p>",
				"<font color='#5A91D2' size='13' face='Impact'>{{BattleTankName}} </font>\n",
				"<textformat tabstops='50'><font color='{{um:color_text}}' size='14'><b>",
				"\n",			
				"txt:bDamageDealt <font color='{{c:BattleDamageDealt}}'>{{BattleDamageDealt}}</font></b>\n",
				"<textformat>",		
				// Урон заблокированный броней
				"{{up:BattleBlockedByArmor}}",
				// Полный урон нанесенный с вашей помощью
				"{{up:BattleAssistedFull}}",
				// Урон по вашим развед-данным
				"{{up:BattleAssistedRadio}}",	
				"<p align='left'>txt:BattleCredits <font color='{{c:BattleCredits}}'>{{BattleCredits}}</font>\n",
				"txt:bCreditDebit <font color='{{c:BattleCreditDebit}}'>{{BattleCreditDebit}}</font>\n",	
				"txt:CUXP   <font color='{{c:BattleXP}}'>{{BattleXP}} {{BattleDailyXPFactor}}</font> ( <font color='{{c:BattleOriginalXP}}'>{{BattleOriginalXP}}</font> )\n",
				"txt:bTmenXP <font color='{{c:BattleTmenXP}}'>{{BattleTmenXP}} {{BattleDailyXPFactor}}</font>\n",
				// Кол-во дополнительного опыта за игру во взводе
				"{{up:BattleSquadXP}}",
				// Нанесено оглушений
				"{{up:BattleStunNum}}",
				// Количество оглушенной техники
				"{{up:BattleStunned}}",			
				// Суммарное время оглушения 
				"{{up:BattleStunDuration}}",	
				"<p align='center'>{{um:ButtonResult}}</p>"
			],
			"icon": "", 
			// Иконки с конфига
			"bgIcon": "{{um:png}}/vehicle/{{BattleTankIcon}}"
			// Иконки с папки PMOD
			// "bgIcon": "{{um:A_png}}/vehicle/{{BattleTankIcon}}"
		}
	},
	
	"UserPattern": {
		"up:BattleMastery": ["   <img src='img://gui/maps/icons/library/proficiency/class_icons_{{BattleMastery}}.png' width='28' height='28' vspace='-10'>", ""],
		// Прогресс отличительных отметок
		"up:BattleMarksOnGunIcon": ["<img src='img://../res_mods/configs/BBMods/Xotabych/images/marksOnGun/{{BattleTankNation}}{{BattleMarksOnGun}}.png' width='41' height='11' vspace='-1'> <font color='{{c:BattleDamageRating}}'>{{BattleDamageRating:2f}}%</font>", ""],
	    // Прогресс Рангов и шевронов 
		"up:BattleVehRank": ["{{BattleVehRankIcon}}", "{{BattleAccRankIcon}}"],		
		// Вывод ранга техники если есть, иначе ранг акка
		"up:BattleChevronIcon":[" ", ""],
		// Кол-во дополнительного опыта за игру во взводе 	
		"up:BattleSquadXP": ["txt:bSquadXP <font color='{{c:BattleSquadXP}}'>{{BattleSquadXP}}</font>\n", ""],		
		// Чистый доход в бонах	
		"up:BattleBonnDebit": ["txt:IncomeBooms: <font color='{{c:BattleBonnDebit}}'>{{BattleBonnDebit}}</font>  <img src='img://gui/maps/icons/library/CrystalIcon-1.png' width='16' height='16' align='baseline' vspace='-3'>\n", ""],
		// Бои во взводе в рандоме
		"up:Squad_isReset": [ "<b>txt:bSquad</b>\t\t<font size='14' color='{{c:Squad_WinCounter:r}}'><b>{{Squad_WinCounter}}</b></font> / <font color='#FAE496'><b>{{Squad_BattleCounter}}</b></font>\t<img src='img://../res_mods/configs/BBMods/Xotabych/images/{{c:Squad_DiffWinrate}}.png' width='10' height='10' vspace='-4'>\t<font color='{{c:Squad_WinCounter:r}}'>{{Squad_WinCounter:r}}%</font>\n<img src='img://../res_mods/configs/BBMods/Xotabych/images/pixel_03.png' height='1' width='219'>", "" ],	
		// Нанесено оглушений
		"up:BattleStunNum": ["txt:StunNum: <font color='{{c:BattleStunNum}}'>{{BattleStunNum}}</font>\n", ""],		
		// Суммарное время оглушения 
		"up:BattleStunDuration": ["txt:StunDuration: <font color='{{c:BattleStunDuration}}'>{{BattleStunDuration}}</font> txt:StunTime\n", ""],
		// Количество оглушенной техники
		"up:BattleStunned": ["txt:Stunned: <font color='{{c:BattleStunned}}'>{{BattleStunned}}</font>\n", ""],
		// Урон заблокированный броней
		"up:BattleBlockedByArmor": ["<b>txt:BlockedArmor: <font color='{{c:BattleBlockedByArmor}}'>{{BattleBlockedByArmor}}</font></b>\n", ""],
		// Полный урон нанесенный с вашей помощью
		"up:BattleAssistedFull": ["<b>txt:AssistedFull: <font color='{{c:BattleAssisted}}'>{{BattleAssistedFull}}</font></b>\n", ""],
		// Урон по вашим развед-данным
		"up:BattleAssistedRadio": ["<b>txt:AssistedRadio: <font color='{{c:BattleAssisted}}'>{{BattleAssistedRadio}}</font></b>\n", ""],
		// Штрафы и компенсации
		"up:BattlePenalty": ["<font color='#F06060'>txt:Penalty {{BattlePenalty}}</font>\n", ""],
		"up:BattleContribution": ["<font color='#70CC70'>txt:Contribution {{BattleContribution}}</font>\n</b>", ""],
		"up:BattleContributionIn": ["<font color='#70CC70'>txt:InContribution {{BattleContributionIn}}</font>\n</b>", ""]		
	}
}