{
	"ResultsWindow": {
		// Шаблон строки информации в поле "название карты боя"
		"StringPattern": [],
		// Шаблон строки в поле Довольствие
		"StringPattern2": ["txt:StringPattern21 \t\t\t\t txt:StringPattern22"],
		// Шаблон строки в поле Довольствие2
		"StringPattern3": [
			"<textformat tabstops='[180]' leading='-2'><font size='13' color='#5e5f54'>",
			// Отметка: 99,99% (9999)   Попаданий: 100%
			"txt:StringMarksOnGun {{up:BattleMarksOnGunIcon}} ( <font color='{{c:BattleAssistedDamageRating}}'>{{BattleAssistedDamageRating}}</font> )\t\t txt:cDiffHitsRate <font color='{{c:BattleHitsRatio}}'>{{BattleHitsRatio:1f}}%</font>\n",
			// Урон: 99 000             Позиция по урону: 1 
			"txt:bDamageDealt <font color='{{c:BattleDamageDealt}}'>{{BattleDamageDealt}}</font>\t\t txt:StringTookDmg <font color='#E9E2BF'>{{BattleDamagePosition}}</font>\n",
			// Чистый опыт: 9 000       Позиция по опыту: 1
			"txt:Original_XP: <font color='{{c:BattleOriginalXP}}'>{{BattleOriginalXP}}</font> ( <font color='{{c:BattleTotalXP}}'>{{BattleTotalXP}}</font> )\t\t txt:StringTookExp <font color='#E9E2BF'>{{BattleXPPosition}}</font>\n",
			// Кредитов за бой: 999 000 Доход: 999 000
			"txt:StringCredits <font color='{{c:BattleCredits}}'>{{BattleCredits}}</font> <img src='img://gui/maps/icons/library/CreditsIcon-2.png' width='16' height='16' vspace='-3'/>\t\t txt:StringDebit <p align='right'><font color='{{c:BattleCreditDebit}}'>{{BattleCreditDebit}}</font> <img src='img://gui/maps/icons/library/CreditsIcon-2.png' width='16' height='16' vspace='-3'/>",
			"</font></textformat>"		
		],
		// Шаблон вывода информации в разделе "Статистика" вкладки "Подробный отчет" окна результатов боя.
		"Statistic": [
			// Произведено выстрелов:
			{"label": "txt:rwstat011", "value": "{{BattleShots}}"},
			// \tпрямых попаданий / % попаданий:
			{"label": "txt:rwstat012", "value": "{{BattleHits}} / <font color='{{c:BattleHitsRatio}}'>{{BattleHitsRatio}}%</font>"},
			// \tпробитий / % пробитий:
			{"label": "txt:rwstat013", "value": "{{BattlePiercings}} / <font color='{{c:BattleShotsRatio}}'>{{BattleShotsRatio}}%</font>"},
			// Урон нанесенный противникам:
			{"label": "txt:rwstat001", "value": "<font color='{{c:BattleDamageDealt}}'>{{BattleDamageDealt}}</font>"},
			// \tс дистанции свыше 300м:
			{"label": "txt:rwstat002", "value": "<font color='{{c:BattleSniperDamage}}'>{{BattleSniperDamage}}</font>"},
			// \tурон учитываемый при расчете % отметки:
			{"label": "txt:rwstat003", "value": "<font color='{{c:BattleAssistedDamageRating}}'>{{BattleAssistedDamageRating}}</font>"},
			// \tурон нанесенный с вашей помощью:
			{"label": "txt:rwstat004", "value": "<font color='{{c:BattleAssisted}}'>{{BattleAssisted}}</font>"},
			// \tурон по вашим развед-данным:
			{"label": "txt:rwstat005", "value": "<font color='{{c:BattleAssistedRadio}}'>{{BattleAssistedRadio}}</font>"},
			// \tурон по сбитой вами гусле:
			{"label": "txt:rwstat006", "value": "<font color='{{c:BattleAssistedTrack}}'>{{BattleAssistedTrack}}</font>"},
			// \tурон по оглушенным целям:
			{"label": "txt:rwstat007", "value": "<font color='{{c:BattleAssistedStun}}'>{{BattleAssistedStun}}</font>"},
			// \tПолучено попаданий:
			{"label": "txt:rwstat015", "value": "{{BattleHitsReceived}}"},
			// \t\tс пробитием / без пробития:
			{"label": "txt:rwstat016", "value": "{{BattlePiercingsReceived}} / {{BattleNoDamageHitsReceived}}"},		
			// Урон, заблокированный броней:
			{"label": "txt:rwstat014", "value": "<font color='{{c:BattleBlockedByArmor}}'>{{BattleBlockedByArmor}}</font>"},
			// Урон нанесенный союзникам:
			{"label": "txt:rwstat017", "value": "{{BattleTeamDamage}}"},
			// Обнаружено машин противника:
			{"label": "txt:rwstat008", "value": "<font color='{{c:BattleSpotted}}'>{{BattleSpotted}}</font>"},
			// \tуничтожено машин противника:
			{"label": "txt:rwstat009", "value": "<font color='{{c:BattleKills}}'>{{BattleKills}}</font>"},
			// \tповреждено машин противника:
			{"label": "txt:rwstat010", "value": "<font color='{{c:BattleDamaged}}'>{{BattleDamaged}}</font>"},	
			// Очки захвата / защиты базы:
			{"label": "txt:rwstat018", "value": "{{BattleCapturePoints}} / {{BattleDroppedCapturePoints}}"},
			// Пройденное расстояние в километрах:
			{"label": "txt:rwstat019", "value": "{{BattleMileage:2f}}"}	
		],
		// Шаблон вывода информации в разделе "Время" вкладки "Подробный отчет" окна результатов боя.
		"Times": [
			// Бой начался в:
			{"label": "txt:rwtime001", "value": "{{BattleCreateTime:t}}"},
			// Провел в бою:
			{"label": "txt:rwtime002", "value": "<font color='{{c:BattleDuration}}'>{{BattleDuration:t}}</font>"},
			// Прожил в бою:
			{"label": "txt:rwtime003","value": "<font color='{{c:BattleLifeTime}}'>{{BattleLifeTime:t}}</font>"}
		],
		// Шаблон вывода информации в разделе "Кредиты" вкладки "Подробный отчет" окна результатов боя.
		"Credits": [],
		// Шаблон вывода информации в разделе "Опыт" вкладки "Подробный отчет" окна результатов боя.
		"XP": []
	}
}