{
	"TextLabels": {
		"ally":		{"default": "{{tank}}", "label": "{{player}}", "battles": [2,3,4,5,7,10,11,12,13]},
		"squadman":	{"default": "{{player}}", "label": "{{tank}}\n{{player}}", "battles": [1,3,4,5,7]},
		"enemy":	{"default": "{{tank}}", "label": "{{tank}}", "battles": []}
	}
}